^C:\USERS\DEAN\DESKTOP\OPENCVCONSOLEAPPLICATION\OPENCVCONSOLEAPPLICATION\STDAFX.CPP
C:\USERS\DEAN\DESKTOP\OPENCVCONSOLEAPPLICATION\OPENCVCONSOLEAPPLICATION\DEBUG\OPENCVCONSOLEAPPLICATION.PCH
C:\USERS\DEAN\DESKTOP\OPENCVCONSOLEAPPLICATION\OPENCVCONSOLEAPPLICATION\DEBUG\STDAFX.OBJ
C:\USERS\DEAN\DESKTOP\OPENCVCONSOLEAPPLICATION\OPENCVCONSOLEAPPLICATION\DEBUG\VC100.PDB
^C:\USERS\DEAN\DESKTOP\OPENCVCONSOLEAPPLICATION\OPENCVCONSOLEAPPLICATION\OPENCVCONSOLEAPPLICATION.CPP
C:\USERS\DEAN\DESKTOP\OPENCVCONSOLEAPPLICATION\OPENCVCONSOLEAPPLICATION\DEBUG\OPENCVCONSOLEAPPLICATION.OBJ
C:\USERS\DEAN\DESKTOP\OPENCVCONSOLEAPPLICATION\OPENCVCONSOLEAPPLICATION\DEBUG\VC100.PDB
