^C:\USERS\DEAN\DESKTOP\OPENCVCONSOLEAPPLICATION\OPENCVCONSOLEAPPLICATION\DEBUG\OPENCVCONSOLEAPPLICATION.OBJ|C:\USERS\DEAN\DESKTOP\OPENCVCONSOLEAPPLICATION\OPENCVCONSOLEAPPLICATION\DEBUG\STDAFX.OBJ
C:\DEV\OPENCV\2.4.3\OPENCV\BUILD\X86\VC10\LIB\OPENCV_CALIB3D243D.LIB
C:\DEV\OPENCV\2.4.3\OPENCV\BUILD\X86\VC10\LIB\OPENCV_CONTRIB243D.LIB
C:\DEV\OPENCV\2.4.3\OPENCV\BUILD\X86\VC10\LIB\OPENCV_CORE243D.LIB
C:\DEV\OPENCV\2.4.3\OPENCV\BUILD\X86\VC10\LIB\OPENCV_FEATURES2D243D.LIB
C:\DEV\OPENCV\2.4.3\OPENCV\BUILD\X86\VC10\LIB\OPENCV_FLANN243D.LIB
C:\DEV\OPENCV\2.4.3\OPENCV\BUILD\X86\VC10\LIB\OPENCV_GPU243D.LIB
C:\DEV\OPENCV\2.4.3\OPENCV\BUILD\X86\VC10\LIB\OPENCV_HAARTRAINING_ENGINED.LIB
C:\DEV\OPENCV\2.4.3\OPENCV\BUILD\X86\VC10\LIB\OPENCV_HIGHGUI243D.LIB
C:\DEV\OPENCV\2.4.3\OPENCV\BUILD\X86\VC10\LIB\OPENCV_IMGPROC243D.LIB
C:\DEV\OPENCV\2.4.3\OPENCV\BUILD\X86\VC10\LIB\OPENCV_LEGACY243D.LIB
C:\DEV\OPENCV\2.4.3\OPENCV\BUILD\X86\VC10\LIB\OPENCV_ML243D.LIB
C:\DEV\OPENCV\2.4.3\OPENCV\BUILD\X86\VC10\LIB\OPENCV_NONFREE243D.LIB
C:\DEV\OPENCV\2.4.3\OPENCV\BUILD\X86\VC10\LIB\OPENCV_OBJDETECT243D.LIB
C:\DEV\OPENCV\2.4.3\OPENCV\BUILD\X86\VC10\LIB\OPENCV_PHOTO243D.LIB
C:\DEV\OPENCV\2.4.3\OPENCV\BUILD\X86\VC10\LIB\OPENCV_STITCHING243D.LIB
C:\DEV\OPENCV\2.4.3\OPENCV\BUILD\X86\VC10\LIB\OPENCV_TS243D.LIB
C:\DEV\OPENCV\2.4.3\OPENCV\BUILD\X86\VC10\LIB\OPENCV_VIDEO243D.LIB
C:\DEV\OPENCV\2.4.3\OPENCV\BUILD\X86\VC10\LIB\OPENCV_VIDEOSTAB243D.LIB
C:\PROGRAM FILES (X86)\MICROSOFT SDKS\WINDOWS\V7.0A\LIB\KERNEL32.LIB
C:\PROGRAM FILES (X86)\MICROSOFT SDKS\WINDOWS\V7.0A\LIB\USER32.LIB
C:\PROGRAM FILES (X86)\MICROSOFT SDKS\WINDOWS\V7.0A\LIB\GDI32.LIB
C:\PROGRAM FILES (X86)\MICROSOFT SDKS\WINDOWS\V7.0A\LIB\WINSPOOL.LIB
C:\PROGRAM FILES (X86)\MICROSOFT SDKS\WINDOWS\V7.0A\LIB\COMDLG32.LIB
C:\PROGRAM FILES (X86)\MICROSOFT SDKS\WINDOWS\V7.0A\LIB\ADVAPI32.LIB
C:\PROGRAM FILES (X86)\MICROSOFT SDKS\WINDOWS\V7.0A\LIB\SHELL32.LIB
C:\PROGRAM FILES (X86)\MICROSOFT SDKS\WINDOWS\V7.0A\LIB\OLE32.LIB
C:\PROGRAM FILES (X86)\MICROSOFT SDKS\WINDOWS\V7.0A\LIB\OLEAUT32.LIB
C:\PROGRAM FILES (X86)\MICROSOFT SDKS\WINDOWS\V7.0A\LIB\UUID.LIB
C:\PROGRAM FILES (X86)\MICROSOFT SDKS\WINDOWS\V7.0A\LIB\ODBC32.LIB
C:\PROGRAM FILES (X86)\MICROSOFT SDKS\WINDOWS\V7.0A\LIB\ODBCCP32.LIB
C:\USERS\DEAN\DESKTOP\OPENCVCONSOLEAPPLICATION\OPENCVCONSOLEAPPLICATION\DEBUG\OPENCVCONSOLEAPPLICATION.OBJ
C:\USERS\DEAN\DESKTOP\OPENCVCONSOLEAPPLICATION\OPENCVCONSOLEAPPLICATION\DEBUG\STDAFX.OBJ
C:\WINDOWS\GLOBALIZATION\SORTING\SORTDEFAULT.NLS
C:\PROGRAM FILES (X86)\MICROSOFT VISUAL STUDIO 10.0\VC\LIB\MSVCPRTD.LIB
C:\PROGRAM FILES (X86)\MICROSOFT VISUAL STUDIO 10.0\VC\LIB\MSVCRTD.LIB
C:\PROGRAM FILES (X86)\MICROSOFT VISUAL STUDIO 10.0\VC\LIB\OLDNAMES.LIB
C:\WINDOWS\SYSTEM32\TZRES.DLL
C:\USERS\DEAN\DESKTOP\OPENCVCONSOLEAPPLICATION\DEBUG\OPENCVCONSOLEAPPLICATION.EXE
