^C:\USERS\DEAN\DROPBOX\UNI WORK\MSC\TERM2\AINT506 - VISION SYSTEMS\ASSIGNMENT\OPENCVCONSOLEAPPLICATION\OPENCVCONSOLEAPPLICATION\STDAFX.CPP
/c /ZI /nologo /W3 /WX- /Od /Oy- /D WIN32 /D _DEBUG /D _CONSOLE /D _UNICODE /D UNICODE /Gm /EHsc /RTC1 /MDd /GS /fp:precise /Zc:wchar_t /Zc:forScope /Yc"StdAfx.h" /Fp"Debug\OpenCVConsoleApplication.pch" /Fo"Debug\\" /Fd"Debug\vc100.pdb" /Gd /TP /analyze- /errorReport:prompt C:\USERS\DEAN\DROPBOX\UNI WORK\MSC\TERM2\AINT506 - VISION SYSTEMS\ASSIGNMENT\OPENCVCONSOLEAPPLICATION\OPENCVCONSOLEAPPLICATION\STDAFX.CPP
^C:\USERS\DEAN\DROPBOX\UNI WORK\MSC\TERM2\AINT506 - VISION SYSTEMS\ASSIGNMENT\OPENCVCONSOLEAPPLICATION\OPENCVCONSOLEAPPLICATION\IMAGEPROCESSOR.CPP
/c /ZI /nologo /W3 /WX- /Od /Oy- /D WIN32 /D _DEBUG /D _CONSOLE /D _UNICODE /D UNICODE /Gm /EHsc /RTC1 /MDd /GS /fp:precise /Zc:wchar_t /Zc:forScope /Yu"StdAfx.h" /Fp"Debug\OpenCVConsoleApplication.pch" /Fo"Debug\\" /Fd"Debug\vc100.pdb" /Gd /TP /analyze- /errorReport:prompt C:\USERS\DEAN\DROPBOX\UNI WORK\MSC\TERM2\AINT506 - VISION SYSTEMS\ASSIGNMENT\OPENCVCONSOLEAPPLICATION\OPENCVCONSOLEAPPLICATION\IMAGEPROCESSOR.CPP
^C:\USERS\DEAN\DROPBOX\UNI WORK\MSC\TERM2\AINT506 - VISION SYSTEMS\ASSIGNMENT\OPENCVCONSOLEAPPLICATION\OPENCVCONSOLEAPPLICATION\OPENCVCONSOLEAPPLICATION.CPP
/c /ZI /nologo /W3 /WX- /Od /Oy- /D WIN32 /D _DEBUG /D _CONSOLE /D _UNICODE /D UNICODE /Gm /EHsc /RTC1 /MDd /GS /fp:precise /Zc:wchar_t /Zc:forScope /Yu"StdAfx.h" /Fp"Debug\OpenCVConsoleApplication.pch" /Fo"Debug\\" /Fd"Debug\vc100.pdb" /Gd /TP /analyze- /errorReport:prompt C:\USERS\DEAN\DROPBOX\UNI WORK\MSC\TERM2\AINT506 - VISION SYSTEMS\ASSIGNMENT\OPENCVCONSOLEAPPLICATION\OPENCVCONSOLEAPPLICATION\OPENCVCONSOLEAPPLICATION.CPP
