^C:\USERS\DEAN\DROPBOX\UNI WORK\MSC\TERM2\AINT506 - VISION SYSTEMS\ASSIGNMENT\OPENCVCONSOLEAPPLICATION\OPENCVCONSOLEAPPLICATION\DEBUG\IMAGEPROCESSOR.OBJ|C:\USERS\DEAN\DROPBOX\UNI WORK\MSC\TERM2\AINT506 - VISION SYSTEMS\ASSIGNMENT\OPENCVCONSOLEAPPLICATION\OPENCVCONSOLEAPPLICATION\DEBUG\OPENCVCONSOLEAPPLICATION.OBJ|C:\USERS\DEAN\DROPBOX\UNI WORK\MSC\TERM2\AINT506 - VISION SYSTEMS\ASSIGNMENT\OPENCVCONSOLEAPPLICATION\OPENCVCONSOLEAPPLICATION\DEBUG\STDAFX.OBJ
C:\USERS\DEAN\DROPBOX\UNI WORK\MSC\TERM2\AINT506 - VISION SYSTEMS\ASSIGNMENT\OPENCVCONSOLEAPPLICATION\DEBUG\OPENCVCONSOLEAPPLICATION.ILK
C:\USERS\DEAN\DROPBOX\UNI WORK\MSC\TERM2\AINT506 - VISION SYSTEMS\ASSIGNMENT\OPENCVCONSOLEAPPLICATION\DEBUG\OPENCVCONSOLEAPPLICATION.EXE
C:\USERS\DEAN\DROPBOX\UNI WORK\MSC\TERM2\AINT506 - VISION SYSTEMS\ASSIGNMENT\OPENCVCONSOLEAPPLICATION\OPENCVCONSOLEAPPLICATION\DEBUG\OPENCVCONSOLEAPPLICATION.EXE.INTERMEDIATE.MANIFEST
C:\USERS\DEAN\DROPBOX\UNI WORK\MSC\TERM2\AINT506 - VISION SYSTEMS\ASSIGNMENT\OPENCVCONSOLEAPPLICATION\DEBUG\OPENCVCONSOLEAPPLICATION.PDB
