^C:\USERS\DEAN\DROPBOX\UNI WORK\MSC\TERM2\AINT506 - VISION SYSTEMS\ASSIGNMENT\OPENCVCONSOLEAPPLICATION\OPENCVCONSOLEAPPLICATION\DEBUG\IMAGEPROCESSOR.OBJ|C:\USERS\DEAN\DROPBOX\UNI WORK\MSC\TERM2\AINT506 - VISION SYSTEMS\ASSIGNMENT\OPENCVCONSOLEAPPLICATION\OPENCVCONSOLEAPPLICATION\DEBUG\OPENCVCONSOLEAPPLICATION.OBJ|C:\USERS\DEAN\DROPBOX\UNI WORK\MSC\TERM2\AINT506 - VISION SYSTEMS\ASSIGNMENT\OPENCVCONSOLEAPPLICATION\OPENCVCONSOLEAPPLICATION\DEBUG\STDAFX.OBJ
/ERRORREPORT:PROMPT /OUT:"C:\Users\dean\Dropbox\Uni Work\MSc\Term2\AINT506 - Vision systems\Assignment\OpenCVConsoleApplication\Debug\OpenCVConsoleApplication.exe" /NOLOGO CLNUIDevice.lib opencv_calib3d243d.lib opencv_contrib243d.lib opencv_core243d.lib opencv_features2d243d.lib opencv_flann243d.lib opencv_gpu243d.lib opencv_haartraining_engined.lib opencv_highgui243d.lib opencv_imgproc243d.lib opencv_legacy243d.lib opencv_ml243d.lib opencv_nonfree243d.lib opencv_objdetect243d.lib opencv_photo243d.lib opencv_stitching243d.lib opencv_ts243d.lib opencv_video243d.lib opencv_videostab243d.lib kernel32.lib user32.lib gdi32.lib winspool.lib comdlg32.lib advapi32.lib shell32.lib ole32.lib oleaut32.lib uuid.lib odbc32.lib odbccp32.lib /MANIFEST /ManifestFile:"Debug\OpenCVConsoleApplication.exe.intermediate.manifest" /MANIFESTUAC:"level='asInvoker' uiAccess='false'" /DEBUG /PDB:"C:\Users\dean\Dropbox\Uni Work\MSc\Term2\AINT506 - Vision systems\Assignment\OpenCVConsoleApplication\Debug\OpenCVConsoleApplication.pdb" /SUBSYSTEM:CONSOLE /TLBID:1 /DYNAMICBASE /NXCOMPAT /IMPLIB:"C:\Users\dean\Dropbox\Uni Work\MSc\Term2\AINT506 - Vision systems\Assignment\OpenCVConsoleApplication\Debug\OpenCVConsoleApplication.lib" /MACHINE:X86 Debug\ImageProcessor.obj
Debug\OpenCVConsoleApplication.obj
Debug\stdafx.obj
